DATA
DB  
IVES
DB  
KITE
DB  
 PIR
DB  
MAJI
DB  
 SKA
DB  
ICIU
DB  
:   
DW  
0A00
0000
DB  
IVES
DB  
KITE
DB  
 ANT
DB  
RAJI
DB  
 SKA
DB  
ICIU
DB  
:   
DW  
0A00
0000
DB  
REZU
DB  
LTAT
DB  
AS Y
DB  
RA: 
DW  
0A00
0000
CODE
OU00
IN46
OU08
IN48
OU10
GD46
GD48
ADD 
CD46
OU46
ACQ1
OE  
0046
REL1
HALT
